…
``` r
# save(rough_r_data, file = "data_replication/rough_r_data_IE.RData")
# write.csv(rough_r_data, "data_replication/rough_r_data_IE.csv", row.names=FALSE)
```

``` r
rough_r_data %>% 
  dplyr::filter(!is.na(revision) & Meaning %in% c("smooth",'rough')) %>% 
  dplyr::select(Language,Form,Meaning,r,revision) %>% 
  dplyr::mutate(nbchar = stringr::str_count(Form,"[:alpha:]")) %>% 
  dplyr::filter(revision %in% c("trilled","other"))
```

    ## # A tibble: 590 × 6
    ##    Language     Form   Meaning r     revision nbchar
    ##    <chr>        <chr>  <chr>   <lgl> <chr>     <int>
    ##  1 Afrikaans    rowwe  rough   TRUE  trilled       5
    ##  2 Azeerbaijani kobud  rough   FALSE trilled       5
    ##  3 Azeerbaijani hamar  smooth  TRUE  trilled       5
    ##  4 Belarusian   грубы  rough   TRUE  trilled       5
    ##  5 Belarusian   гладкі smooth  FALSE trilled       6
    ##  6 Bulgarian    груб   rough   TRUE  trilled       4
    ##  7 Bulgarian    гладък smooth  FALSE trilled       6
    ##  8 Bosnian      glatko smooth  FALSE other         6
    ##  9 Czech        hladký smooth  FALSE trilled       6
    ## 10 Welsh        garw   rough   TRUE  trilled       4
    ## # ℹ 580 more rows
…
